<?xml version="1.0" encoding="UTF-8" standalone="no"?>
<svg
   xmlns:dc="http://purl.org/dc/elements/1.1/"
   xmlns:cc="http://creativecommons.org/ns#"
   xmlns:rdf="http://www.w3.org/1999/02/22-rdf-syntax-ns#"
   xmlns:svg="http://www.w3.org/2000/svg"
   xmlns="http://www.w3.org/2000/svg"
   xmlns:sodipodi="http://sodipodi.sourceforge.net/DTD/sodipodi-0.dtd"
   xmlns:inkscape="http://www.inkscape.org/namespaces/inkscape"
   inkscape:version="1.0rc1 (09960d6, 2020-04-09)"
   sodipodi:docname="back-blue.svg"
   id="svg272"
   version="1.0"
   viewBox="0 0 167.086 242.667"
   height="303"
   width="208">
  <metadata
     id="metadata278">
    <rdf:RDF>
      <cc:Work
         rdf:about="">
        <dc:format>image/svg+xml</dc:format>
        <dc:type
           rdf:resource="http://purl.org/dc/dcmitype/StillImage" />
      </cc:Work>
    </rdf:RDF>
  </metadata>
  <defs
     id="defs276" />
  <sodipodi:namedview
     inkscape:current-layer="svg272"
     inkscape:window-maximized="0"
     inkscape:window-y="23"
     inkscape:window-x="1680"
     inkscape:cy="151.5"
     inkscape:cx="272.38694"
     inkscape:zoom="0.905042"
     showgrid="false"
     id="namedview274"
     inkscape:window-height="1395"
     inkscape:window-width="1280"
     inkscape:pageshadow="2"
     inkscape:pageopacity="0"
     guidetolerance="10"
     gridtolerance="10"
     objecttolerance="10"
     borderopacity="1"
     bordercolor="#666666"
     pagecolor="#ffffff" />
  <g
     transform="matrix(1.000006,0,0,0.99999193,-5.0175251e-4,3.3864129e-4)"
     id="g270"
     stroke-width="0.998"
     stroke="#000000"
     fill="#ffffff">
    <path
       inkscape:connector-curvature="0"
       id="path24"
       transform="matrix(1,0,0,1.00303,0,-0.367)"
       stroke-width="0.499"
       d="m 166.836,235.548 c 0,3.777 -3.086,6.869 -6.87,6.869 H 7.111 c -3.775,0 -6.861,-3.092 -6.861,-6.87 V 7.12 c 0,-3.777 3.086,-6.87 6.861,-6.87 h 152.855 c 3.784,0 6.87,3.093 6.87,6.87 z" />
    <path
       inkscape:connector-curvature="0"
       id="path26"
       stroke="none"
       fill-rule="evenodd"
       d="M 119.837,46.39 V 8.98 H 82.811 v 37.41 z" />
    <path
       inkscape:connector-curvature="0"
       id="path28"
       stroke="none"
       fill-rule="evenodd"
       fill="#190c80"
       d="M 156.843,46.39 V 8.98 h -37.006 v 37.41 z" />
    <path
       inkscape:connector-curvature="0"
       id="path30"
       stroke="none"
       fill-rule="evenodd"
       d="M 156.843,83.8 V 46.39 H 119.837 V 83.8 Z" />
    <path
       inkscape:connector-curvature="0"
       id="path32"
       stroke="none"
       fill-rule="evenodd"
       fill="#190c80"
       d="M 119.837,83.8 V 46.39 H 82.811 V 83.8 Z" />
    <path
       inkscape:connector-curvature="0"
       id="path34"
       stroke="none"
       fill-rule="evenodd"
       d="M 45.804,121.209 V 83.799 H 8.798 v 37.41 z" />
    <path
       inkscape:connector-curvature="0"
       id="path36"
       stroke="none"
       fill-rule="evenodd"
       fill="#190c80"
       d="M 82.811,121.209 V 83.799 H 45.804 v 37.41 z" />
    <path
       inkscape:connector-curvature="0"
       id="path38"
       stroke="none"
       fill-rule="evenodd"
       d="M 119.837,121.209 V 83.799 H 82.811 v 37.41 z" />
    <path
       inkscape:connector-curvature="0"
       id="path40"
       stroke="none"
       fill-rule="evenodd"
       fill="#190c80"
       d="m 156.843,121.209 v -37.41 h -37.006 v 37.41 z" />
    <path
       inkscape:connector-curvature="0"
       id="path42"
       stroke="none"
       fill-rule="evenodd"
       d="M 82.811,83.8 V 46.39 H 45.804 V 83.8 Z" />
    <path
       inkscape:connector-curvature="0"
       id="path44"
       stroke="none"
       fill-rule="evenodd"
       fill="#190c80"
       d="M 45.804,83.8 V 46.39 H 8.798 V 83.8 Z" />
    <path
       inkscape:connector-curvature="0"
       id="path46"
       stroke="none"
       fill-rule="evenodd"
       d="M 45.804,46.39 V 8.98 H 8.798 v 37.41 z" />
    <path
       inkscape:connector-curvature="0"
       id="path48"
       stroke="none"
       fill-rule="evenodd"
       fill="#190c80"
       d="M 82.811,46.39 V 8.98 H 45.804 v 37.41 z" />
    <path
       inkscape:connector-curvature="0"
       id="path50"
       stroke="none"
       fill-rule="evenodd"
       d="m 82.811,233.457 v -37.42 H 45.804 v 37.42 z" />
    <path
       inkscape:connector-curvature="0"
       id="path52"
       stroke="none"
       fill-rule="evenodd"
       fill="#190c80"
       d="m 45.804,233.457 v -37.42 H 8.798 v 37.42 z" />
    <path
       inkscape:connector-curvature="0"
       id="path54"
       stroke="none"
       fill-rule="evenodd"
       d="m 45.804,196.038 v -37.41 H 8.798 v 37.41 z" />
    <path
       inkscape:connector-curvature="0"
       id="path56"
       stroke="none"
       fill-rule="evenodd"
       fill="#190c80"
       d="m 82.811,196.038 v -37.41 H 45.804 v 37.41 z" />
    <path
       inkscape:connector-curvature="0"
       id="path58"
       stroke="none"
       fill-rule="evenodd"
       d="m 156.843,158.628 v -37.42 h -37.006 v 37.42 z" />
    <path
       inkscape:connector-curvature="0"
       id="path60"
       stroke="none"
       fill-rule="evenodd"
       fill="#190c80"
       d="m 119.837,158.628 v -37.42 H 82.811 v 37.42 z" />
    <path
       inkscape:connector-curvature="0"
       id="path62"
       stroke="none"
       fill-rule="evenodd"
       d="m 82.811,158.628 v -37.42 H 45.804 v 37.42 z" />
    <path
       inkscape:connector-curvature="0"
       id="path64"
       stroke="none"
       fill-rule="evenodd"
       fill="#190c80"
       d="m 45.804,158.628 v -37.42 H 8.798 v 37.42 z" />
    <path
       inkscape:connector-curvature="0"
       id="path66"
       stroke="none"
       fill-rule="evenodd"
       d="m 119.837,196.038 v -37.41 H 82.811 v 37.41 z" />
    <path
       inkscape:connector-curvature="0"
       id="path68"
       stroke="none"
       fill-rule="evenodd"
       fill="#190c80"
       d="m 156.843,196.038 v -37.41 h -37.006 v 37.41 z" />
    <path
       inkscape:connector-curvature="0"
       id="path70"
       stroke="none"
       fill-rule="evenodd"
       d="m 156.843,233.457 v -37.42 h -37.006 v 37.42 z" />
    <path
       inkscape:connector-curvature="0"
       id="path72"
       stroke="none"
       fill-rule="evenodd"
       fill="#190c80"
       d="m 119.837,233.457 v -37.42 H 82.811 v 37.42 z M 115.205,8.98 119.837,13.642 87.443,46.39 82.811,41.707 Z" />
    <path
       inkscape:connector-curvature="0"
       id="path74"
       stroke="none"
       fill-rule="evenodd"
       d="m 152.211,8.98 4.632,4.662 L 124.47,46.39 119.837,41.707 152.211,8.98" />
    <path
       inkscape:connector-curvature="0"
       id="path76"
       stroke="none"
       fill-rule="evenodd"
       fill="#190c80"
       d="m 124.47,46.39 -4.633,4.683 32.374,32.727 4.632,-4.684 z" />
    <path
       inkscape:connector-curvature="0"
       id="path78"
       stroke="none"
       fill-rule="evenodd"
       d="M 87.443,46.39 82.811,51.073 115.205,83.8 119.837,79.116 87.443,46.39" />
    <path
       inkscape:connector-curvature="0"
       id="path80"
       stroke="none"
       fill-rule="evenodd"
       fill="#190c80"
       d="M 41.173,83.8 45.804,88.471 13.42,121.21 8.798,116.548 Z" />
    <path
       inkscape:connector-curvature="0"
       id="path82"
       stroke="none"
       fill-rule="evenodd"
       d="m 78.2,83.8 4.611,4.671 -32.374,32.738 -4.633,-4.662 L 78.2,83.8" />
    <path
       inkscape:connector-curvature="0"
       id="path84"
       stroke="none"
       fill-rule="evenodd"
       fill="#190c80"
       d="m 115.205,83.8 4.632,4.671 -32.394,32.738 -4.632,-4.662 z" />
    <path
       inkscape:connector-curvature="0"
       id="path86"
       stroke="none"
       fill-rule="evenodd"
       d="m 152.211,83.8 4.632,4.671 -32.373,32.738 -4.633,-4.662 32.374,-32.747" />
    <path
       inkscape:connector-curvature="0"
       id="path88"
       stroke="none"
       fill-rule="evenodd"
       fill="#190c80"
       d="M 50.437,46.39 45.804,51.073 78.2,83.8 82.812,79.116 Z" />
    <path
       inkscape:connector-curvature="0"
       id="path90"
       stroke="none"
       fill-rule="evenodd"
       d="M 13.42,46.39 8.798,51.073 41.173,83.8 45.804,79.116 13.42,46.39" />
    <path
       inkscape:connector-curvature="0"
       id="path92"
       stroke="none"
       fill-rule="evenodd"
       fill="#190c80"
       d="M 41.173,8.98 45.804,13.642 13.42,46.39 8.798,41.707 Z" />
    <path
       inkscape:connector-curvature="0"
       id="path94"
       stroke="none"
       fill-rule="evenodd"
       d="M 78.2,8.98 82.811,13.642 50.437,46.39 45.804,41.707 78.2,8.98" />
    <path
       inkscape:connector-curvature="0"
       id="path96"
       stroke="none"
       fill-rule="evenodd"
       fill="#190c80"
       d="m 50.437,233.457 -4.633,-4.683 32.396,-32.736 4.612,4.682 -32.374,32.737 z" />
    <path
       inkscape:connector-curvature="0"
       id="path98"
       stroke="none"
       fill-rule="evenodd"
       d="m 13.42,233.457 -4.622,-4.683 32.375,-32.736 4.631,4.682 -32.384,32.737" />
    <path
       inkscape:connector-curvature="0"
       id="path100"
       stroke="none"
       fill-rule="evenodd"
       fill="#190c80"
       d="m 41.173,196.038 4.631,-4.683 -32.384,-32.727 -4.622,4.683 z" />
    <path
       inkscape:connector-curvature="0"
       id="path102"
       stroke="none"
       fill-rule="evenodd"
       d="m 78.2,196.038 4.611,-4.683 -32.374,-32.727 -4.633,4.683 32.396,32.727" />
    <path
       inkscape:connector-curvature="0"
       id="path104"
       stroke="none"
       fill-rule="evenodd"
       fill="#190c80"
       d="m 124.47,158.628 -4.633,-4.672 32.374,-32.747 4.632,4.683 z" />
    <path
       inkscape:connector-curvature="0"
       id="path106"
       stroke="none"
       fill-rule="evenodd"
       d="m 87.443,158.628 -4.632,-4.672 32.394,-32.747 4.632,4.683 -32.394,32.736" />
    <path
       inkscape:connector-curvature="0"
       id="path108"
       stroke="none"
       fill-rule="evenodd"
       fill="#190c80"
       d="m 50.437,158.628 -4.633,-4.672 32.396,-32.747 4.612,4.683 -32.374,32.736 z" />
    <path
       inkscape:connector-curvature="0"
       id="path110"
       stroke="none"
       fill-rule="evenodd"
       d="m 13.42,158.628 -4.622,-4.672 32.375,-32.747 4.631,4.683 -32.384,32.736" />
    <path
       inkscape:connector-curvature="0"
       id="path112"
       stroke="none"
       fill-rule="evenodd"
       fill="#190c80"
       d="m 115.205,196.038 4.632,-4.683 -32.394,-32.727 -4.632,4.683 z" />
    <path
       inkscape:connector-curvature="0"
       id="path114"
       stroke="none"
       fill-rule="evenodd"
       d="m 152.211,196.038 4.632,-4.683 -32.373,-32.727 -4.633,4.683 32.374,32.727" />
    <path
       inkscape:connector-curvature="0"
       id="path116"
       stroke="none"
       fill-rule="evenodd"
       fill="#190c80"
       d="m 124.47,233.457 -4.633,-4.683 32.374,-32.736 4.632,4.682 z" />
    <path
       inkscape:connector-curvature="0"
       id="path118"
       stroke="none"
       fill-rule="evenodd"
       d="m 87.443,233.457 -4.632,-4.683 32.394,-32.736 4.632,4.682 -32.394,32.737" />
    <path
       inkscape:connector-curvature="0"
       id="path120"
       stroke="none"
       fill-rule="evenodd"
       fill="#190c80"
       d="m 87.443,8.98 -4.632,4.662 32.394,32.748 4.632,-4.683 z" />
    <path
       inkscape:connector-curvature="0"
       id="path122"
       stroke="none"
       fill-rule="evenodd"
       fill="#190c80"
       d="M 101.319,8.98 82.81,27.69 101.318,46.39 119.836,27.69 101.32,8.98 Z" />
    <path
       inkscape:connector-curvature="0"
       id="path124"
       stroke="none"
       fill-rule="evenodd"
       d="m 124.47,8.98 -4.633,4.662 32.374,32.748 4.632,-4.683 L 124.47,8.98" />
    <path
       inkscape:connector-curvature="0"
       id="path126"
       stroke="none"
       fill-rule="evenodd"
       d="m 138.326,8.98 -18.489,18.71 18.489,18.7 18.517,-18.7 -18.517,-18.71" />
    <path
       inkscape:connector-curvature="0"
       id="path128"
       stroke="none"
       fill-rule="evenodd"
       fill="#190c80"
       d="m 152.211,46.39 4.632,4.683 -32.373,32.727 -4.633,-4.684 z" />
    <path
       inkscape:connector-curvature="0"
       id="path130"
       stroke="none"
       fill-rule="evenodd"
       fill="#190c80"
       d="M 138.326,46.39 156.843,65.1 138.326,83.8 119.837,65.1 Z" />
    <path
       inkscape:connector-curvature="0"
       id="path132"
       stroke="none"
       fill-rule="evenodd"
       d="m 115.205,46.39 4.632,4.683 L 87.443,83.8 82.811,79.116 115.205,46.39" />
    <path
       inkscape:connector-curvature="0"
       id="path134"
       stroke="none"
       fill-rule="evenodd"
       d="M 101.319,46.39 119.837,65.1 101.319,83.8 82.81,65.1 101.318,46.39" />
    <path
       inkscape:connector-curvature="0"
       id="path136"
       stroke="none"
       fill-rule="evenodd"
       fill="#190c80"
       d="m 13.42,83.8 -4.622,4.67 32.375,32.738 4.631,-4.662 z" />
    <path
       inkscape:connector-curvature="0"
       id="path138"
       stroke="none"
       fill-rule="evenodd"
       fill="#190c80"
       d="m 27.317,83.8 -18.519,18.709 18.519,18.7 18.487,-18.7 -18.487,-18.71 z" />
    <path
       inkscape:connector-curvature="0"
       id="path140"
       stroke="none"
       fill-rule="evenodd"
       d="M 50.437,83.8 45.804,88.471 78.2,121.21 82.812,116.548 50.437,83.8" />
    <path
       inkscape:connector-curvature="0"
       id="path142"
       stroke="none"
       fill-rule="evenodd"
       d="m 64.323,83.8 -18.519,18.709 18.52,18.7 18.487,-18.7 -18.488,-18.71" />
    <path
       inkscape:connector-curvature="0"
       id="path144"
       stroke="none"
       fill-rule="evenodd"
       fill="#190c80"
       d="m 87.443,83.8 -4.633,4.67 32.394,32.738 4.632,-4.662 z" />
    <path
       inkscape:connector-curvature="0"
       id="path146"
       stroke="none"
       fill-rule="evenodd"
       fill="#190c80"
       d="m 101.319,83.8 -18.509,18.709 18.508,18.7 18.518,-18.7 -18.518,-18.71 z" />
    <path
       inkscape:connector-curvature="0"
       id="path148"
       stroke="none"
       fill-rule="evenodd"
       d="m 124.47,83.8 -4.633,4.671 32.374,32.738 4.632,-4.662 L 124.47,83.8" />
    <path
       inkscape:connector-curvature="0"
       id="path150"
       stroke="none"
       fill-rule="evenodd"
       d="m 138.326,83.8 -18.489,18.709 18.489,18.7 18.517,-18.7 -18.517,-18.71" />
    <path
       inkscape:connector-curvature="0"
       id="path152"
       stroke="none"
       fill-rule="evenodd"
       fill="#190c80"
       d="M 78.2,46.39 82.811,51.073 50.437,83.8 45.804,79.116 Z" />
    <path
       inkscape:connector-curvature="0"
       id="path154"
       stroke="none"
       fill-rule="evenodd"
       fill="#190c80"
       d="M 64.323,46.39 82.811,65.1 64.323,83.8 45.804,65.1 64.324,46.39 Z" />
    <path
       inkscape:connector-curvature="0"
       id="path156"
       stroke="none"
       fill-rule="evenodd"
       d="M 41.173,46.39 45.804,51.073 13.42,83.8 8.798,79.116 41.173,46.39" />
    <path
       inkscape:connector-curvature="0"
       id="path158"
       stroke="none"
       fill-rule="evenodd"
       d="M 27.317,46.39 45.804,65.1 27.317,83.8 8.798,65.1 27.317,46.39" />
    <path
       inkscape:connector-curvature="0"
       id="path160"
       stroke="none"
       fill-rule="evenodd"
       fill="#190c80"
       d="M 13.42,8.98 8.798,13.642 41.173,46.39 45.804,41.707 Z" />
    <path
       inkscape:connector-curvature="0"
       id="path162"
       stroke="none"
       fill-rule="evenodd"
       fill="#190c80"
       d="M 27.317,8.98 8.798,27.69 27.317,46.39 45.804,27.69 Z" />
    <path
       inkscape:connector-curvature="0"
       id="path164"
       stroke="none"
       fill-rule="evenodd"
       d="M 50.437,8.98 45.804,13.642 78.2,46.39 82.812,41.707 50.437,8.98" />
    <path
       inkscape:connector-curvature="0"
       id="path166"
       stroke="none"
       fill-rule="evenodd"
       d="M 64.323,8.98 45.804,27.69 64.324,46.39 82.811,27.69 64.323,8.98" />
    <path
       inkscape:connector-curvature="0"
       id="path168"
       stroke="none"
       fill-rule="evenodd"
       fill="#190c80"
       d="m 78.2,233.457 4.611,-4.683 -32.374,-32.736 -4.633,4.682 z" />
    <path
       inkscape:connector-curvature="0"
       id="path170"
       stroke="none"
       fill-rule="evenodd"
       fill="#190c80"
       d="m 64.323,233.457 18.488,-18.72 -18.488,-18.7 -18.519,18.7 18.52,18.72 z" />
    <path
       inkscape:connector-curvature="0"
       id="path172"
       stroke="none"
       fill-rule="evenodd"
       d="m 41.173,233.457 4.631,-4.683 -32.384,-32.736 -4.622,4.682 32.375,32.737" />
    <path
       inkscape:connector-curvature="0"
       id="path174"
       stroke="none"
       fill-rule="evenodd"
       d="m 27.317,233.457 18.487,-18.72 -18.487,-18.7 -18.519,18.7 18.519,18.72" />
    <path
       inkscape:connector-curvature="0"
       id="path176"
       stroke="none"
       fill-rule="evenodd"
       fill="#190c80"
       d="m 27.317,196.038 -18.519,-18.7 18.519,-18.71 18.487,18.71 z" />
    <path
       inkscape:connector-curvature="0"
       id="path178"
       stroke="none"
       fill-rule="evenodd"
       d="m 50.437,196.038 -4.633,-4.683 32.396,-32.727 4.612,4.683 -32.374,32.727" />
    <path
       inkscape:connector-curvature="0"
       id="path180"
       stroke="none"
       fill-rule="evenodd"
       d="m 64.323,196.038 -18.519,-18.7 18.52,-18.71 18.487,18.71 -18.488,18.7" />
    <path
       inkscape:connector-curvature="0"
       id="path182"
       stroke="none"
       fill-rule="evenodd"
       fill="#190c80"
       d="m 152.211,158.628 4.632,-4.672 -32.373,-32.747 -4.633,4.683 z" />
    <path
       inkscape:connector-curvature="0"
       id="path184"
       stroke="none"
       fill-rule="evenodd"
       fill="#190c80"
       d="m 138.326,158.628 18.517,-18.71 -18.517,-18.71 -18.489,18.71 z" />
    <path
       inkscape:connector-curvature="0"
       id="path186"
       stroke="none"
       fill-rule="evenodd"
       d="m 115.205,158.628 4.632,-4.672 -32.394,-32.747 -4.632,4.683 32.394,32.736" />
    <path
       inkscape:connector-curvature="0"
       id="path188"
       stroke="none"
       fill-rule="evenodd"
       d="m 101.319,158.628 18.518,-18.71 -18.518,-18.71 -18.508,18.71 18.508,18.71" />
    <path
       inkscape:connector-curvature="0"
       id="path190"
       stroke="none"
       fill-rule="evenodd"
       fill="#190c80"
       d="m 78.2,158.628 4.611,-4.672 -32.374,-32.747 -4.633,4.683 z" />
    <path
       inkscape:connector-curvature="0"
       id="path192"
       stroke="none"
       fill-rule="evenodd"
       fill="#190c80"
       d="m 64.323,158.628 18.488,-18.71 -18.488,-18.71 -18.519,18.71 18.52,18.71 z" />
    <path
       inkscape:connector-curvature="0"
       id="path194"
       stroke="none"
       fill-rule="evenodd"
       d="m 41.173,158.628 4.631,-4.672 -32.384,-32.747 -4.622,4.683 32.375,32.736" />
    <path
       inkscape:connector-curvature="0"
       id="path196"
       stroke="none"
       fill-rule="evenodd"
       d="m 27.317,158.628 18.487,-18.71 -18.487,-18.71 -18.519,18.71 18.519,18.71" />
    <path
       inkscape:connector-curvature="0"
       id="path198"
       stroke="none"
       fill-rule="evenodd"
       fill="#190c80"
       d="m 87.443,196.038 -4.632,-4.683 32.394,-32.727 4.632,4.683 z" />
    <path
       inkscape:connector-curvature="0"
       id="path200"
       stroke="none"
       fill-rule="evenodd"
       fill="#190c80"
       d="m 101.319,196.038 -18.508,-18.7 18.508,-18.71 18.518,18.71 z" />
    <path
       inkscape:connector-curvature="0"
       id="path202"
       stroke="none"
       fill-rule="evenodd"
       d="m 124.47,196.038 -4.633,-4.683 32.374,-32.727 4.632,4.683 -32.373,32.727" />
    <path
       inkscape:connector-curvature="0"
       id="path204"
       stroke="none"
       fill-rule="evenodd"
       d="m 138.326,196.038 -18.489,-18.7 18.489,-18.71 18.517,18.71 -18.517,18.7" />
    <path
       inkscape:connector-curvature="0"
       id="path206"
       stroke="none"
       fill-rule="evenodd"
       fill="#190c80"
       d="m 152.211,233.457 4.632,-4.683 -32.373,-32.736 -4.633,4.682 z" />
    <path
       inkscape:connector-curvature="0"
       id="path208"
       stroke="none"
       fill-rule="evenodd"
       fill="#190c80"
       d="m 138.326,233.457 18.517,-18.72 -18.517,-18.7 -18.489,18.7 z" />
    <path
       inkscape:connector-curvature="0"
       id="path210"
       stroke="none"
       fill-rule="evenodd"
       d="m 115.205,233.457 4.632,-4.683 -32.394,-32.736 -4.632,4.682 32.394,32.737" />
    <path
       inkscape:connector-curvature="0"
       id="path212"
       stroke="none"
       fill-rule="evenodd"
       d="m 101.319,233.457 18.518,-18.72 -18.518,-18.7 -18.508,18.7 18.508,18.72 m 9.265,-196.432 v -19.28 h -18.52 v 19.28 z" />
    <path
       inkscape:connector-curvature="0"
       id="path214"
       stroke="none"
       fill-rule="evenodd"
       fill="#190c80"
       d="m 147.59,37.025 v -19.28 h -18.5 v 19.28 h 18.498 z m -46.271,-16.359 -6.939,7.024 6.938,6.993 6.948,-6.993 -6.948,-7.024" />
    <path
       inkscape:connector-curvature="0"
       id="path216"
       stroke="none"
       fill-rule="evenodd"
       d="m 138.326,20.666 -6.928,7.024 6.928,6.993 6.947,-6.993 -6.947,-7.024 m 9.264,53.778 v -19.28 h -18.5 v 19.28 h 18.498 z" />
    <path
       inkscape:connector-curvature="0"
       id="path218"
       stroke="none"
       fill-rule="evenodd"
       fill="#190c80"
       d="m 110.584,74.444 v -19.28 h -18.52 v 19.28 z m 27.742,-16.358 6.947,7.014 -6.947,7.003 -6.928,-7.003 6.928,-7.014" />
    <path
       inkscape:connector-curvature="0"
       id="path220"
       stroke="none"
       fill-rule="evenodd"
       d="m 101.319,58.086 6.948,7.014 -6.948,7.003 -6.939,-7.003 6.938,-7.014 M 36.55,111.864 V 92.574 H 18.053 v 19.29 h 18.499 z" />
    <path
       inkscape:connector-curvature="0"
       id="path222"
       stroke="none"
       fill-rule="evenodd"
       fill="#190c80"
       d="M 73.567,111.864 V 92.574 H 55.06 v 19.29 h 18.508 z m -46.25,-16.379 -6.949,7.024 6.949,7.024 6.917,-7.024 -6.917,-7.024" />
    <path
       inkscape:connector-curvature="0"
       id="path224"
       stroke="none"
       fill-rule="evenodd"
       d="m 64.323,95.485 -6.948,7.024 6.948,7.024 6.928,-7.024 -6.928,-7.024 m 46.261,16.379 v -19.29 h -18.52 v 19.29 z" />
    <path
       inkscape:connector-curvature="0"
       id="path226"
       stroke="none"
       fill-rule="evenodd"
       fill="#190c80"
       d="m 147.59,111.864 v -19.29 h -18.5 v 19.29 h 18.498 z m -46.271,-16.379 -6.938,7.024 6.938,7.024 6.948,-7.024 -6.948,-7.024" />
    <path
       inkscape:connector-curvature="0"
       id="path228"
       stroke="none"
       fill-rule="evenodd"
       d="m 138.326,95.485 -6.928,7.024 6.928,7.024 6.947,-7.024 -6.947,-7.024 M 73.567,74.444 V 55.164 H 55.06 v 19.28 h 18.508 z" />
    <path
       inkscape:connector-curvature="0"
       id="path230"
       stroke="none"
       fill-rule="evenodd"
       fill="#190c80"
       d="M 36.55,74.444 V 55.164 H 18.053 v 19.28 H 36.552 Z M 64.323,58.086 71.251,65.1 64.323,72.103 57.375,65.1 64.323,58.086" />
    <path
       inkscape:connector-curvature="0"
       id="path232"
       stroke="none"
       fill-rule="evenodd"
       d="M 27.317,58.086 34.234,65.1 27.317,72.103 20.368,65.1 27.317,58.086 M 36.55,37.025 V 17.745 H 18.053 v 19.28 h 18.499 z" />
    <path
       inkscape:connector-curvature="0"
       id="path234"
       stroke="none"
       fill-rule="evenodd"
       fill="#190c80"
       d="M 73.567,37.025 V 17.745 H 55.06 v 19.28 h 18.508 z m -46.25,-16.359 -6.949,7.024 6.949,6.993 6.917,-6.993 -6.917,-7.024" />
    <path
       inkscape:connector-curvature="0"
       id="path236"
       stroke="none"
       fill-rule="evenodd"
       d="m 64.323,20.666 -6.948,7.024 6.948,6.993 6.928,-6.993 -6.928,-7.024 m 9.244,204.006 V 205.403 H 55.06 v 19.27 h 18.508 z" />
    <path
       inkscape:connector-curvature="0"
       id="path238"
       stroke="none"
       fill-rule="evenodd"
       fill="#190c80"
       d="M 36.55,224.672 V 205.403 H 18.053 v 19.27 h 18.499 z m 27.773,-2.911 6.928,-7.024 -6.928,-7.003 -6.948,7.003 6.948,7.024" />
    <path
       inkscape:connector-curvature="0"
       id="path240"
       stroke="none"
       fill-rule="evenodd"
       d="m 27.317,221.761 6.917,-7.024 -6.917,-7.003 -6.949,7.003 6.949,7.024" />
    <path
       inkscape:connector-curvature="0"
       id="path242"
       stroke="none"
       fill-rule="evenodd"
       fill="#190c80"
       d="m 73.567,187.273 v -19.29 H 55.06 v 19.29 h 18.508 z" />
    <path
       inkscape:connector-curvature="0"
       id="path244"
       stroke="none"
       fill-rule="evenodd"
       d="m 64.323,184.351 -6.948,-7.013 6.948,-7.023 6.928,7.023 -6.928,7.013 m 83.267,-34.497 v -19.3 h -18.5 v 19.3 h 18.498 z" />
    <path
       inkscape:connector-curvature="0"
       id="path246"
       stroke="none"
       fill-rule="evenodd"
       fill="#190c80"
       d="m 110.584,149.854 v -19.3 h -18.52 v 19.3 z m 27.742,-2.912 6.947,-7.024 -6.947,-7.023 -6.928,7.023 6.928,7.024" />
    <path
       inkscape:connector-curvature="0"
       id="path248"
       stroke="none"
       fill-rule="evenodd"
       d="m 101.319,146.942 6.948,-7.024 -6.948,-7.023 -6.938,7.023 6.938,7.024 m -27.752,2.912 v -19.3 H 55.06 v 19.3 h 18.508 z" />
    <path
       inkscape:connector-curvature="0"
       id="path250"
       stroke="none"
       fill-rule="evenodd"
       fill="#190c80"
       d="m 36.55,149.854 v -19.3 H 18.053 v 19.3 h 18.499 z m 27.773,-2.912 6.928,-7.024 -6.928,-7.023 -6.948,7.023 6.948,7.024" />
    <path
       inkscape:connector-curvature="0"
       id="path252"
       stroke="none"
       fill-rule="evenodd"
       d="m 27.317,146.942 6.917,-7.024 -6.917,-7.023 -6.949,7.023 6.949,7.024 m 83.267,40.331 v -19.29 h -18.52 v 19.29 z" />
    <path
       inkscape:connector-curvature="0"
       id="path254"
       stroke="none"
       fill-rule="evenodd"
       fill="#190c80"
       d="m 147.59,187.273 v -19.29 h -18.5 v 19.29 h 18.498 z m -46.271,-2.922 -6.938,-7.013 6.938,-7.023 6.948,7.023 -6.948,7.013" />
    <path
       inkscape:connector-curvature="0"
       id="path256"
       stroke="none"
       fill-rule="evenodd"
       d="m 138.326,184.351 -6.928,-7.013 6.928,-7.023 6.947,7.023 -6.947,7.013 m 9.264,40.321 v -19.269 h -18.5 v 19.27 h 18.498 z" />
    <path
       inkscape:connector-curvature="0"
       id="path258"
       stroke="none"
       fill-rule="evenodd"
       fill="#190c80"
       d="m 110.584,224.672 v -19.269 h -18.52 v 19.27 h 18.52 z m 27.742,-2.911 6.947,-7.024 -6.947,-7.003 -6.928,7.003 6.928,7.024" />
    <path
       inkscape:connector-curvature="0"
       id="path260"
       stroke="none"
       fill-rule="evenodd"
       d="m 101.319,221.761 6.948,-7.024 -6.948,-7.003 -6.938,7.003 6.938,7.024" />
    <path
       inkscape:connector-curvature="0"
       id="path262"
       stroke="none"
       fill-rule="evenodd"
       fill="#190c80"
       d="m 13.42,196.038 -4.622,-4.683 32.375,-32.727 4.631,4.683 z" />
    <path
       inkscape:connector-curvature="0"
       id="path264"
       stroke="none"
       fill-rule="evenodd"
       d="m 36.55,187.273 v -19.29 H 18.053 v 19.29 h 18.499 z" />
    <path
       inkscape:connector-curvature="0"
       id="path266"
       stroke="none"
       fill-rule="evenodd"
       fill="#190c80"
       d="m 27.317,184.351 -6.949,-7.013 6.949,-7.023 6.917,7.023 -6.917,7.013" />
    <path
       inkscape:connector-curvature="0"
       id="path268"
       transform="matrix(1,0,0,1.00303,0,-0.367)"
       stroke-miterlimit="10"
       stroke-linejoin="round"
       stroke-width="2.995"
       stroke="#1e0c7d"
       fill="none"
       d="M 162.232,236.573 H 4.482 v -232 h 157.75 z" />
  </g>
</svg>
